{
  "project_info": {
    "project_number": "440047368828",
    "firebase_url": "https://calllogger-da81c.firebaseio.com",
    "project_id": "calllogger-da81c",
    "storage_bucket": "calllogger-da81c.appspot.com"
  },
  "client": [
    {
      "client_info": {
        "mobilesdk_app_id": "1:440047368828:android:96fda5e25ba13146",
        "android_client_info": {
          "package_name": "dev.tetamba.calllogger"
        }
      },
      "oauth_client": [
        {
          "client_id": "440047368828-8hn6lq5vmpdkrr5rv95kcl1hspg2duhs.apps.googleusercontent.com",
          "client_type": 1,
          "android_info": {
            "package_name": "dev.tetamba.calllogger",
            "certificate_hash": "287c02d6043ff28904b03d46b1e624ce564c02bf"
          }
        },
        {
          "client_id": "440047368828-0ocm39964ct60sf8q9dfltcg4eg8phoa.apps.googleusercontent.com",
          "client_type": 3
        }
      ],
      "api_key": [
        {
          "current_key": "AIzaSyCnEKBIwbnLQdkBj04zfaV6nDc9AB62gcc"
        }
      ],
      "services": {
        "analytics_service": {
          "status": 1
        },
        "appinvite_service": {
          "status": 2,
          "other_platform_oauth_client": [
            {
              "client_id": "440047368828-0ocm39964ct60sf8q9dfltcg4eg8phoa.apps.googleusercontent.com",
              "client_type": 3
            }
          ]
        },
        "ads_service": {
          "status": 2
        }
      }
    }
  ],
  "configuration_version": "1"
}